\relax 
\citation{easley2008sparse}
\@writefile{toc}{\contentsline {section}{\numberline {1}Abstract}{1}}
\@writefile{toc}{\contentsline {section}{\numberline {2}Wavelet transform and Shearlet transform}{1}}
\@writefile{lof}{\contentsline {figure}{\numberline {1}{\ignorespaces Subband of Shearlet Transform\relax }}{1}}
\providecommand*\caption@xref[2]{\@setref\relax\@undefined{#1}}
\newlabel{fig:1}{{1}{1}}
\citation{hauser2012fast}
\@writefile{toc}{\contentsline {section}{\numberline {3}Inplementation of Shearlet Transform}{2}}
\newlabel{eq:1}{{1}{2}}
\@writefile{lof}{\contentsline {figure}{\numberline {2}{\ignorespaces Shearlet Transform Spectra\relax }}{2}}
\newlabel{fig:2}{{2}{2}}
\@writefile{lof}{\contentsline {figure}{\numberline {3}{\ignorespaces Shearlet Transform and reconstruction\relax }}{2}}
\newlabel{fig:3}{{3}{2}}
\bibstyle{plain}
\bibdata{report}
\bibcite{easley2008sparse}{1}
\bibcite{hauser2012fast}{2}
\@writefile{toc}{\contentsline {section}{\numberline {4}Image Processing}{3}}
