\begin{thebibliography}{1}

\bibitem{easley2008sparse}
Glenn Easley, Demetrio Labate, and Wang-Q Lim.
\newblock Sparse directional image representations using the discrete shearlet
  transform.
\newblock {\em Applied and Computational Harmonic Analysis}, 25(1):25--46,
  2008.

\bibitem{hauser2012fast}
S{\"o}ren H{\"a}user and Gabriele Steidl.
\newblock Fast finite shearlet transform.
\newblock {\em arXiv preprint arXiv:1202.1773}, 2012.

\end{thebibliography}
