\relax 
\citation{selesnick2012total}
\citation{goldstein2009split}
\bibstyle{plain}
\bibdata{report_2}
\bibcite{goldstein2009split}{1}
\@writefile{toc}{\contentsline {section}{\numberline {1}Introduction}{1}}
\newlabel{eq:1}{{1}{1}}
\@writefile{toc}{\contentsline {subsection}{\numberline {1.1}\textbf  {Majorization-Minimization}}{1}}
\newlabel{eq:2}{{2}{1}}
\newlabel{eq:3}{{3}{1}}
\@writefile{toc}{\contentsline {subsection}{\numberline {1.2}\textbf  {Split Bregman}}{1}}
\newlabel{eq:4}{{4}{1}}
\bibcite{selesnick2012total}{2}
\@writefile{lof}{\contentsline {figure}{\numberline {1}{\ignorespaces from left to right: original image, nosie image (white noise,sigma = 50), denoising with Shearlet-based TV (psnr = -20.45dB)\relax }}{2}}
\providecommand*\caption@xref[2]{\@setref\relax\@undefined{#1}}
\newlabel{fig:1}{{1}{2}}
